<?xml version="1.0" encoding="UTF-8" standalone="no"?>
<!-- Created with Inkscape (http://www.inkscape.org/) -->
<svg
   xmlns:dc="http://purl.org/dc/elements/1.1/"
   xmlns:cc="http://web.resource.org/cc/"
   xmlns:rdf="http://www.w3.org/1999/02/22-rdf-syntax-ns#"
   xmlns:svg="http://www.w3.org/2000/svg"
   xmlns="http://www.w3.org/2000/svg"
   xmlns:sodipodi="http://sodipodi.sourceforge.net/DTD/sodipodi-0.dtd"
   xmlns:inkscape="http://www.inkscape.org/namespaces/inkscape"
   width="40"
   height="40"
   id="svg2"
   sodipodi:version="0.32"
   inkscape:version="0.44"
   version="1.0"
   sodipodi:docbase="/home/johann/Developpement/kdeedu-kalzium/kalzium/files"
   sodipodi:docname="10_2.svg">
  <defs
     id="defs4" />
  <sodipodi:namedview
     id="base"
     pagecolor="#ffffff"
     bordercolor="#666666"
     borderopacity="1.0"
     inkscape:pageopacity="0.0"
     inkscape:pageshadow="2"
     inkscape:zoom="1"
     inkscape:cx="350"
     inkscape:cy="-40.5"
     inkscape:document-units="px"
     inkscape:current-layer="layer1"
     inkscape:window-width="1129"
     inkscape:window-height="615"
     inkscape:window-x="18"
     inkscape:window-y="93"
     width="40px"
     height="40px" />
  <metadata
     id="metadata7">
    <rdf:RDF>
      <cc:Work
         rdf:about="">
        <dc:format>image/svg+xml</dc:format>
        <dc:type
           rdf:resource="http://purl.org/dc/dcmitype/StillImage" />
      </cc:Work>
    </rdf:RDF>
  </metadata>
  <g
     inkscape:label="Ebene 1"
     inkscape:groupmode="layer"
     id="layer1">
    <g
       id="g1317"
       transform="matrix(1.036269,0,0,1.234568,-68.76388,-652.4754)">
      <path
         style="fill:#f4f4f4"
         d="M 66.35714,609.50507 L 66.35714,528.50507 L 162.85714,528.50507 L 259.35714,528.50507 L 259.35714,609.50507 L 259.35714,690.50507 L 162.85714,690.50507 L 66.35714,690.50507 L 66.35714,609.50507 z "
         id="path1327" />
      <path
         style="fill:#9f9f9f"
         d="M 66.35714,609.50507 L 66.35714,528.50507 L 162.85714,528.50507 L 259.35714,528.50507 L 259.35714,609.50507 L 259.35714,690.50507 L 162.85714,690.50507 L 66.35714,690.50507 L 66.35714,609.50507 z M 144.87233,671.4757 C 145.73393,669.80955 146.16447,668.00233 145.82908,667.45966 C 144.91681,665.98358 132.00316,657.46766 122.35714,651.98107 C 117.68214,649.32197 108.68214,643.4678 102.35714,638.97181 C 82.214023,624.65352 79.571406,623.49497 76.959268,627.83714 C 75.676473,629.96954 74.204849,628.75043 93.85714,641.83553 C 101.55714,646.96243 110.55714,652.96991 113.85714,655.18549 C 117.15714,657.40108 123.45714,661.61786 127.85714,664.55613 C 132.25714,667.49439 137.38244,670.93492 139.24669,672.20175 C 141.11094,673.46858 142.78688,674.50507 142.97101,674.50507 C 143.15513,674.50507 144.01073,673.14185 144.87233,671.4757 z M 164.35714,658.98328 C 164.35714,656.71813 158.61149,644.7851 152.42297,634.19742 C 149.12593,628.55665 143.74009,618.02833 140.45444,610.80114 C 131.39345,590.87037 129.50947,588.35818 124.93893,590.11206 C 122.79013,590.93663 122.95175,593.12702 125.41684,596.58892 C 126.54968,598.17984 129.72818,604.29127 132.48017,610.16987 C 139.18042,624.48245 157.32496,660.69763 158.55736,662.21803 C 159.31777,663.15615 160.08625,663.07344 161.94885,661.85302 C 163.27341,660.98514 164.35714,659.69375 164.35714,658.98328 z M 205.00754,619.89713 C 211.52482,612.96277 220.45714,603.86857 224.85714,599.68781 C 242.57943,582.84857 246.50359,578.55262 246.17568,576.34946 C 246.00048,575.17239 245.14089,573.76061 244.26547,573.21219 C 242.9729,572.40242 237.38236,577.44124 214.51547,600.02616 C 199.02839,615.32228 186.35714,628.27542 186.35714,628.81093 C 186.35714,630.17704 189.53284,632.43521 191.50754,632.47327 C 192.41527,632.49076 198.49027,626.8315 205.00754,619.89713 z "
         id="path1325" />
      <path
         style="fill:#707070"
         d="M 66.35714,609.50507 L 66.35714,528.50507 L 162.85714,528.50507 L 259.35714,528.50507 L 259.35714,609.50507 L 259.35714,690.50507 L 162.85714,690.50507 L 66.35714,690.50507 L 66.35714,609.50507 z M 147.85714,674.50507 C 148.20627,673.40507 148.91159,672.50507 149.42453,672.50507 C 151.24834,672.50507 150.31579,669.84066 147.60714,667.31258 C 143.99276,663.93915 128.67897,653.81057 119.85714,648.95866 C 116.00714,646.8412 108.08831,641.64051 102.25973,637.40157 C 90.536676,628.87575 81.566379,623.50507 79.049336,623.50507 C 78.143987,623.50507 76.68589,624.59989 75.809121,625.93801 C 73.668462,629.20507 75.138951,631.84974 80.640576,634.62737 C 82.959686,635.79823 86.88214,638.21375 89.35714,639.99518 C 99.162668,647.05291 140.68562,674.69538 142.70645,675.51064 C 146.07925,676.87133 147.17395,676.65761 147.85714,674.50507 z M 164.03614,665.30418 C 165.86269,664.64369 167.35714,663.47909 167.35714,662.71618 C 167.35714,660.19794 160.37926,645.40131 153.73239,633.82484 C 150.13565,627.56061 144.69858,616.94149 141.65001,610.22678 C 134.75032,595.02967 130.04824,587.50507 127.45135,587.50507 C 124.15048,587.50507 122.35714,588.63772 122.35714,590.7225 C 122.35714,592.61116 151.62407,653.11155 156.96085,662.25507 C 159.75163,667.0365 159.52071,666.93698 164.03614,665.30418 z M 201.66596,625.25507 C 207.82111,619.06757 215.55714,611.08007 218.85714,607.50507 C 222.15714,603.93007 229.91137,596.16635 236.08877,590.25235 C 248.30904,578.55315 250.15248,575.37727 246.45903,572.38649 C 245.24923,571.40686 243.64572,570.84084 242.89567,571.12866 C 240.58312,572.01607 183.32592,628.922 183.34201,630.31696 C 183.3675,632.52721 186.75139,636.44038 188.66596,636.47365 C 189.66693,636.49104 195.47296,631.48062 201.66596,625.25507 z "
         id="path1323" />
      <path
         style="fill:#2e2e2e"
         d="M 66.35714,609.50507 L 66.35714,528.50507 L 162.85714,528.50507 L 259.35714,528.50507 L 259.35714,609.50507 L 259.35714,690.50507 L 162.85714,690.50507 L 66.35714,690.50507 L 66.35714,609.50507 z M 154.15714,677.30507 C 156.65211,674.8101 155.37511,672.02557 149.60341,667.3755 C 143.0394,662.0871 126.00916,650.89338 119.41051,647.53017 C 116.96487,646.28367 109.31487,641.20132 102.41051,636.23607 C 83.079805,622.33444 75.95227,619.9039 73.858834,626.49973 C 72.902218,629.51376 75.134002,632.34015 81.718266,636.45311 C 84.845665,638.40669 99.353604,648.05756 113.95813,657.8995 C 128.56266,667.74143 142.16451,676.38418 144.18448,677.1056 C 148.83813,678.76764 152.61895,678.84326 154.15714,677.30507 z M 169.40075,669.95252 C 170.46001,668.67619 170.382,667.42525 168.96227,662.92134 C 166.94202,656.51237 158.84171,639.99765 152.81716,630.00507 C 150.49599,626.15507 145.81885,616.93007 142.42352,609.50507 C 134.762,592.75064 130.4509,586.50507 126.54742,586.50507 C 119.94424,586.50507 119.87758,590.12272 126.24225,603.06863 C 153.06786,657.63263 155.98402,663.22984 159.66969,667.22832 C 163.83519,671.74736 167.14271,672.67329 169.40075,669.95252 z M 190.38236,637.3909 C 193.24501,635.12811 200.37292,628.27452 206.22216,622.1607 C 212.0714,616.04688 223.45188,604.51076 231.51211,596.52487 C 239.57234,588.53898 246.93445,580.77085 247.87234,579.26236 C 251.04037,574.16698 247.33964,568.40919 242.17261,570.39442 C 240.8991,570.88371 237.99662,573.24628 235.72264,575.64456 C 233.44867,578.04284 220.9414,590.52153 207.92872,603.37499 C 181.88708,629.09798 177.80106,634.48124 180.82054,639.08955 C 182.98811,642.39769 184.35564,642.15475 190.38236,637.3909 z "
         id="path1321" />
      <path
         style="fill:black"
         d="M 66.35714,609.50507 L 66.35714,528.50507 L 162.85714,528.50507 L 259.35714,528.50507 L 259.35714,609.50507 L 259.35714,690.50507 L 162.85714,690.50507 L 66.35714,690.50507 L 66.35714,609.50507 z M 155.35714,678.50507 C 158.33476,675.52745 157.82026,673.19528 153.10714,668.30615 C 149.08079,664.12943 129.29739,650.53726 117.35714,643.74415 C 114.33214,642.02315 107.35714,637.44418 101.85714,633.56867 C 84.522036,621.35369 75.357973,618.87443 72.941456,625.74575 C 70.95393,631.39725 71.597919,631.9473 111.90552,659.02612 C 135.4246,674.82634 137.68278,676.19371 144.35714,678.67627 C 150.40655,680.92637 152.97583,680.88638 155.35714,678.50507 z M 170.44959,671.41262 C 171.87435,669.98786 172.34058,668.63169 171.91067,667.16262 C 171.56342,665.97597 171.02119,663.59344 170.70572,661.86811 C 170.39025,660.14279 166.1191,651.14279 161.21426,641.86811 C 156.30942,632.59344 149.12392,618.48007 145.24648,610.50507 C 137.61238,594.80347 131.46837,585.82208 127.71727,584.88061 C 123.87267,583.91568 120.35714,586.87694 120.35714,591.08033 C 120.35714,595.39792 123.02376,601.39855 140.54347,636.50507 C 151.39578,658.25127 155.23624,664.99891 158.89876,668.75507 C 164.06603,674.05446 167.10789,674.75432 170.44959,671.41262 z M 189.70183,640.04322 C 194.25436,637.37526 243.77777,587.36307 247.8629,581.30812 C 250.74954,577.02956 251.06217,572.9416 248.70215,570.33381 C 246.55602,567.96236 243.6595,568.02336 239.55395,570.52646 C 237.7372,571.63411 224.52327,584.11993 210.18967,598.27272 C 179.48327,628.59178 174.90176,635.02944 180.01213,640.67633 C 182.24065,643.13882 184.693,642.97859 189.70183,640.04322 z "
         id="path1319" />
    </g>
  </g>
</svg>
