<?xml version="1.0" encoding="UTF-8" standalone="no"?>
<!-- Created with Inkscape (http://www.inkscape.org/) -->
<svg
   xmlns:dc="http://purl.org/dc/elements/1.1/"
   xmlns:cc="http://web.resource.org/cc/"
   xmlns:rdf="http://www.w3.org/1999/02/22-rdf-syntax-ns#"
   xmlns:svg="http://www.w3.org/2000/svg"
   xmlns="http://www.w3.org/2000/svg"
   xmlns:xlink="http://www.w3.org/1999/xlink"
   xmlns:sodipodi="http://sodipodi.sourceforge.net/DTD/sodipodi-0.dtd"
   xmlns:inkscape="http://www.inkscape.org/namespaces/inkscape"
   version="1.0"
   width="40"
   height="40"
   id="svg2193"
   sodipodi:version="0.32"
   inkscape:version="0.44"
   sodipodi:docname="79_1.svg"
   sodipodi:docbase="/home/johann/Developpement/kdeedu-kalzium/kalzium/files">
  <metadata
     id="metadata34">
    <rdf:RDF>
      <cc:Work
         rdf:about="">
        <dc:format>image/svg+xml</dc:format>
        <dc:type
           rdf:resource="http://purl.org/dc/dcmitype/StillImage" />
      </cc:Work>
    </rdf:RDF>
  </metadata>
  <sodipodi:namedview
     inkscape:window-height="1116"
     inkscape:window-width="1908"
     inkscape:pageshadow="2"
     inkscape:pageopacity="0.0"
     guidetolerance="10.0"
     gridtolerance="10.0"
     objecttolerance="10.0"
     borderopacity="1.0"
     bordercolor="#666666"
     pagecolor="#ffffff"
     id="base"
     inkscape:zoom="10.789274"
     inkscape:cx="43.115392"
     inkscape:cy="21.394487"
     inkscape:window-x="6"
     inkscape:window-y="31"
     inkscape:current-layer="svg2193" />
  <defs
     id="defs2195">
    <linearGradient
       inkscape:collect="always"
       id="linearGradient9501">
      <stop
         style="stop-color:white;stop-opacity:1;"
         offset="0"
         id="stop9503" />
      <stop
         style="stop-color:white;stop-opacity:0;"
         offset="1"
         id="stop9505" />
    </linearGradient>
    <linearGradient
       id="linearGradient3291">
      <stop
         style="stop-color:#000000;stop-opacity:1"
         offset="0"
         id="stop3293" />
      <stop
         style="stop-color:#000000;stop-opacity:0"
         offset="1"
         id="stop3295" />
    </linearGradient>
    <radialGradient
       cx="63.912209"
       cy="115.70919"
       r="63.912209"
       fx="75.857941"
       fy="115.70919"
       id="radialGradient2595"
       xlink:href="#linearGradient3291"
       gradientUnits="userSpaceOnUse"
       gradientTransform="matrix(1,0,0,0.197802,0,92.82166)" />
    <linearGradient
       id="linearGradient3152">
      <stop
         style="stop-color:#000000;stop-opacity:1"
         offset="0"
         id="stop3154" />
      <stop
         style="stop-color:#000000;stop-opacity:0"
         offset="0.5"
         id="stop3158" />
      <stop
         style="stop-color:#ffffff;stop-opacity:1"
         offset="1"
         id="stop3156" />
    </linearGradient>
    <linearGradient
       id="linearGradient3177">
      <stop
         style="stop-color:#ffffff;stop-opacity:0.5151515"
         offset="0"
         id="stop3179" />
      <stop
         style="stop-color:#ffffff;stop-opacity:0"
         offset="1"
         id="stop3181" />
    </linearGradient>
    <linearGradient
       id="linearGradient3192">
      <stop
         style="stop-color:#2e3436;stop-opacity:1"
         offset="0"
         id="stop3194" />
      <stop
         style="stop-color:#2e3436;stop-opacity:0"
         offset="1"
         id="stop3196" />
    </linearGradient>
    <radialGradient
       cx="3.6843116"
       cy="10.218239"
       r="14.609375"
       fx="3.6843116"
       fy="10.218239"
       id="radialGradient2379"
       xlink:href="#linearGradient3192"
       gradientUnits="userSpaceOnUse"
       gradientTransform="matrix(1.314761,-1.102678e-2,1.109618e-2,1.323036,68.38635,-17.30471)" />
    <radialGradient
       cx="-23.990734"
       cy="-5.7544041"
       r="14.609375"
       fx="-23.990734"
       fy="-5.7544041"
       id="radialGradient2382"
       xlink:href="#linearGradient3177"
       gradientUnits="userSpaceOnUse"
       gradientTransform="matrix(1.619986,3.540201e-3,-1.994006e-3,0.912451,47.44686,20.90568)" />
    <linearGradient
       x1="-26.15625"
       y1="-11.328125"
       x2="-0.4375"
       y2="-11.328125"
       id="linearGradient2386"
       xlink:href="#linearGradient3152"
       gradientUnits="userSpaceOnUse"
       gradientTransform="matrix(1.314807,0,0,1.314807,37.50514,23.44965)" />
    <radialGradient
       cx="-23.990734"
       cy="-5.7544041"
       r="14.609375"
       fx="-23.990734"
       fy="-5.7544041"
       id="radialGradient2393"
       xlink:href="#linearGradient3177"
       gradientUnits="userSpaceOnUse"
       gradientTransform="matrix(1.23211,2.692564e-3,-1.516577e-3,0.693981,39.54189,-5.876277)" />
    <radialGradient
       inkscape:collect="always"
       xlink:href="#linearGradient2508"
       id="radialGradient1898"
       gradientUnits="userSpaceOnUse"
       gradientTransform="matrix(2.420084,1.239302e-7,-6.560192e-8,1.696085,42.719,13.04548)"
       cx="-9.2867374"
       cy="-1.4653401"
       fx="-9.2867374"
       fy="-1.4653401"
       r="14.609375" />
    <radialGradient
       inkscape:collect="always"
       xlink:href="#linearGradient3177"
       id="radialGradient1901"
       gradientUnits="userSpaceOnUse"
       gradientTransform="matrix(1.619986,3.540201e-3,-1.994006e-3,0.912451,123.2231,30.08605)"
       cx="-23.990734"
       cy="-5.7544041"
       fx="-23.990734"
       fy="-5.7544041"
       r="14.609375" />
    <linearGradient
       inkscape:collect="always"
       xlink:href="#linearGradient3152"
       id="linearGradient1904"
       gradientUnits="userSpaceOnUse"
       gradientTransform="matrix(1.314807,0,0,1.314807,37.50514,23.44965)"
       x1="4.5541401"
       y1="-13.306251"
       x2="-28.378515"
       y2="-13.058985" />
    <radialGradient
       inkscape:collect="always"
       xlink:href="#linearGradient3291"
       id="radialGradient1915"
       gradientUnits="userSpaceOnUse"
       gradientTransform="matrix(0.277226,0,0,0.101702,2.70576,15.73212)"
       cx="63.912209"
       cy="115.70919"
       fx="75.857941"
       fy="115.70919"
       r="63.912209" />
    <radialGradient
       spreadMethod="reflect"
       gradientUnits="userSpaceOnUse"
       gradientTransform="matrix(2.335726,-2.335714,1.728659,1.728661,-185.6611,259.5484)"
       r="5.4375"
       fy="17.170982"
       fx="117.36594"
       cy="18.861237"
       cx="117.31911"
       id="radialGradient3057"
       xlink:href="#linearGradient3225"
       inkscape:collect="always" />
    <linearGradient
       y2="82.036392"
       x2="58.674988"
       y1="91.063316"
       x1="51.674519"
       gradientTransform="matrix(0.801566,-0.40779,0.597906,0.546692,-92.55286,-3.591061)"
       gradientUnits="userSpaceOnUse"
       id="linearGradient2160"
       xlink:href="#linearGradient3552"
       inkscape:collect="always" />
    <linearGradient
       y2="20.057724"
       x2="26.619194"
       y1="16.355263"
       x1="24.086939"
       gradientTransform="matrix(1.781769,-1.28583,1.885298,1.21522,-76.85371,-30.6101)"
       gradientUnits="userSpaceOnUse"
       id="linearGradient2156"
       xlink:href="#linearGradient3565"
       inkscape:collect="always" />
    <radialGradient
       r="16.602501"
       fy="49.229198"
       fx="-41.394871"
       cy="49.229198"
       cx="-41.394871"
       gradientTransform="matrix(0.342305,1.683683e-2,-0.249452,2.35898,34.48969,-92.73464)"
       gradientUnits="userSpaceOnUse"
       id="radialGradient2154"
       xlink:href="#linearGradient3552"
       inkscape:collect="always" />
    <radialGradient
       r="18.765305"
       fy="27.013157"
       fx="25.839911"
       cy="23.848236"
       cx="34.699203"
       gradientTransform="matrix(0.506643,2.775638e-2,-0.20058,1.703097,-9.74791,-53.80722)"
       gradientUnits="userSpaceOnUse"
       id="radialGradient2152"
       xlink:href="#linearGradient2663"
       inkscape:collect="always" />
    <linearGradient
       id="linearGradient2616">
      <stop
         style="stop-color:#554513;stop-opacity:1;"
         offset="0"
         id="stop2618" />
      <stop
         style="stop-color:#b59e69;stop-opacity:1;"
         offset="1"
         id="stop2620" />
    </linearGradient>
    <linearGradient
       id="linearGradient2663">
      <stop
         style="stop-color:#515151;stop-opacity:1;"
         offset="0"
         id="stop2665" />
      <stop
         style="stop-color:#000000;stop-opacity:1;"
         offset="1"
         id="stop2667" />
    </linearGradient>
    <linearGradient
       inkscape:collect="always"
       id="linearGradient3565">
      <stop
         style="stop-color:#ffffff;stop-opacity:1;"
         offset="0"
         id="stop3567" />
      <stop
         style="stop-color:#ffffff;stop-opacity:0;"
         offset="1"
         id="stop3569" />
    </linearGradient>
    <linearGradient
       inkscape:collect="always"
       id="linearGradient3552">
      <stop
         style="stop-color:#ffffff;stop-opacity:1;"
         offset="0"
         id="stop3554" />
      <stop
         style="stop-color:#ffffff;stop-opacity:0;"
         offset="1"
         id="stop3556" />
    </linearGradient>
    <linearGradient
       id="linearGradient2050">
      <stop
         id="stop3227"
         offset="0"
         style="stop-color:#ffffff;stop-opacity:1;" />
      <stop
         id="stop2053"
         offset="1"
         style="stop-color:#aeaeae;stop-opacity:1;" />
    </linearGradient>
    <linearGradient
       id="linearGradient1648">
      <stop
         id="stop1650"
         offset="0"
         style="stop-color:#b4942a;stop-opacity:1;" />
      <stop
         id="stop1652"
         offset="1"
         style="stop-color:#e4dcc9;stop-opacity:1" />
    </linearGradient>
    <linearGradient
       gradientUnits="userSpaceOnUse"
       y2="-10.327765"
       x2="69.11969"
       y1="-10.327765"
       x1="15.556349"
       id="linearGradient2862"
       xlink:href="#linearGradient2920"
       inkscape:collect="always" />
    <linearGradient
       gradientUnits="userSpaceOnUse"
       y2="3.8146973e-06"
       x2="-19.25"
       y1="3.8146973e-06"
       x1="-50.5"
       id="linearGradient2258"
       xlink:href="#linearGradient3225"
       inkscape:collect="always" />
    <radialGradient
       gradientUnits="userSpaceOnUse"
       gradientTransform="matrix(1,0,0,9.381663e-2,0,109.1951)"
       r="58.625"
       fy="163.13634"
       fx="61.125"
       cy="120.49996"
       cx="61.125"
       id="radialGradient2253"
       xlink:href="#linearGradient2247"
       inkscape:collect="always" />
    <linearGradient
       id="linearGradient2216">
      <stop
         style="stop-color:#ffffff;stop-opacity:0.46209386;"
         offset="0"
         id="stop2218" />
      <stop
         id="stop2224"
         offset="0.5"
         style="stop-color:#ffffff;stop-opacity:1;" />
      <stop
         style="stop-color:#ffffff;stop-opacity:0.35018051;"
         offset="1"
         id="stop2220" />
    </linearGradient>
    <linearGradient
       gradientUnits="userSpaceOnUse"
       y2="-117.27312"
       x2="95"
       y1="-117.27312"
       x1="-0.58578646"
       id="linearGradient2311"
       xlink:href="#linearGradient3225"
       inkscape:collect="always" />
    <linearGradient
       id="linearGradient3225">
      <stop
         style="stop-color:#ffd98c;stop-opacity:1;"
         offset="0"
         id="stop2262" />
      <stop
         id="stop2284"
         offset="0"
         style="stop-color:#ffc550;stop-opacity:1;" />
      <stop
         style="stop-color:#ffac03;stop-opacity:1;"
         offset="0.25423729"
         id="stop2288" />
      <stop
         style="stop-color:#ffbb32;stop-opacity:1;"
         offset="0"
         id="stop2286" />
      <stop
         id="stop2280"
         offset="0.40677965"
         style="stop-color:#ffb115;stop-opacity:1;" />
      <stop
         style="stop-color:#d99723;stop-opacity:1;"
         offset="0.5"
         id="stop2443" />
      <stop
         id="stop2282"
         offset="0.53389829"
         style="stop-color:#d79e3c;stop-opacity:1;" />
      <stop
         id="stop2260"
         offset="0.56197929"
         style="stop-color:#f4d232;stop-opacity:1;" />
      <stop
         id="stop2445"
         offset="0.89111352"
         style="stop-color:#ffaa00;stop-opacity:1;" />
      <stop
         id="stop3229"
         offset="1"
         style="stop-color:#9f6a00;stop-opacity:1;" />
    </linearGradient>
    <linearGradient
       id="linearGradient2327">
      <stop
         id="stop2329"
         offset="0"
         style="stop-color:#000000;stop-opacity:1;" />
      <stop
         style="stop-color:#000000;stop-opacity:1;"
         offset="0.5"
         id="stop2335" />
      <stop
         id="stop2870"
         offset="0.75"
         style="stop-color:black;stop-opacity:0.39350182;" />
      <stop
         id="stop2331"
         offset="1"
         style="stop-color:#000000;stop-opacity:0;" />
    </linearGradient>
    <linearGradient
       id="linearGradient2368"
       inkscape:collect="always">
      <stop
         id="stop2370"
         offset="0"
         style="stop-color:#ffffff;stop-opacity:1;" />
      <stop
         id="stop2372"
         offset="1"
         style="stop-color:#ffffff;stop-opacity:0;" />
    </linearGradient>
    <linearGradient
       id="linearGradient2418">
      <stop
         id="stop2420"
         offset="0"
         style="stop-color:#000000;stop-opacity:0;" />
      <stop
         id="stop2422"
         offset="1"
         style="stop-color:#000000;stop-opacity:0.78623188;" />
    </linearGradient>
    <linearGradient
       id="linearGradient2426">
      <stop
         id="stop2428"
         offset="0"
         style="stop-color:#ffffff;stop-opacity:1;" />
      <stop
         id="stop2430"
         offset="1"
         style="stop-color:#ffffff;stop-opacity:0;" />
    </linearGradient>
    <linearGradient
       id="linearGradient2490">
      <stop
         id="stop2492"
         offset="0"
         style="stop-color:#4b6f9a;stop-opacity:1;" />
      <stop
         style="stop-color:#afc2d9;stop-opacity:0.49803922;"
         offset="0.2577484"
         id="stop2500" />
      <stop
         id="stop2502"
         offset="0.53672314"
         style="stop-color:#57616c;stop-opacity:0;" />
      <stop
         id="stop2494"
         offset="1"
         style="stop-color:#000000;stop-opacity:0;" />
    </linearGradient>
    <linearGradient
       id="linearGradient2508">
      <stop
         id="stop2510"
         offset="0"
         style="stop-color:#000000;stop-opacity:0;" />
      <stop
         style="stop-color:#000000;stop-opacity:0;"
         offset="0.5"
         id="stop2516" />
      <stop
         id="stop2512"
         offset="1"
         style="stop-color:#000000;stop-opacity:1;" />
    </linearGradient>
    <linearGradient
       id="linearGradient2247"
       inkscape:collect="always">
      <stop
         id="stop2249"
         offset="0"
         style="stop-color:#000000;stop-opacity:1;" />
      <stop
         id="stop2251"
         offset="1"
         style="stop-color:#000000;stop-opacity:0;" />
    </linearGradient>
    <linearGradient
       id="linearGradient2270">
      <stop
         id="stop2272"
         offset="0"
         style="stop-color:#000000;stop-opacity:1;" />
      <stop
         id="stop2274"
         offset="1"
         style="stop-color:#000000;stop-opacity:0;" />
    </linearGradient>
    <linearGradient
       id="linearGradient2920">
      <stop
         id="stop2922"
         offset="0"
         style="stop-color:#f4f4f4;stop-opacity:1;" />
      <stop
         style="stop-color:#9a9a9a;stop-opacity:1;"
         offset="0.25"
         id="stop2932" />
      <stop
         style="stop-color:#9d9d9d;stop-opacity:1;"
         offset="0.5"
         id="stop2930" />
      <stop
         id="stop2924"
         offset="1"
         style="stop-color:#7d7d7d;stop-opacity:1;" />
    </linearGradient>
    <radialGradient
       inkscape:collect="always"
       xlink:href="#linearGradient3225"
       id="radialGradient2351"
       gradientUnits="userSpaceOnUse"
       gradientTransform="matrix(1.763354,0,0,4.478402,-21.32302,-435.1026)"
       cx="27.933334"
       cy="125.08694"
       fx="27.933334"
       fy="125.08694"
       r="6.5709848" />
    <radialGradient
       inkscape:collect="always"
       xlink:href="#linearGradient2418"
       id="radialGradient2353"
       gradientUnits="userSpaceOnUse"
       cx="29.3167"
       cy="120.41809"
       fx="26.722891"
       fy="117.9972"
       r="6.5709848" />
    <radialGradient
       inkscape:collect="always"
       xlink:href="#linearGradient2327"
       id="radialGradient2365"
       gradientUnits="userSpaceOnUse"
       gradientTransform="matrix(1.13493,2.425103e-3,-2.457025e-7,0.366007,-1.350683,63.24912)"
       cx="10.159748"
       cy="100.33847"
       fx="9.6346474"
       fy="99.445419"
       r="5.5" />
    <linearGradient
       inkscape:collect="always"
       xlink:href="#linearGradient2368"
       id="linearGradient2372"
       gradientUnits="userSpaceOnUse"
       gradientTransform="matrix(0.357276,0.332619,-0.344947,0.344947,79.04095,-14.23838)"
       x1="22.110399"
       y1="112.98782"
       x2="85.382751"
       y2="112.98782" />
    <linearGradient
       inkscape:collect="always"
       xlink:href="#linearGradient2368"
       id="linearGradient2375"
       gradientUnits="userSpaceOnUse"
       gradientTransform="matrix(0.357276,0.332619,-0.344947,0.344947,79.04095,-14.23838)"
       x1="22.074625"
       y1="113.47271"
       x2="85.436722"
       y2="113.47271" />
    <linearGradient
       inkscape:collect="always"
       xlink:href="#linearGradient2426"
       id="linearGradient2379"
       gradientUnits="userSpaceOnUse"
       gradientTransform="matrix(0.481883,0.115583,-0.120095,0.465043,55.39649,-9.425418)"
       x1="57.607845"
       y1="2.8028319"
       x2="12.689066"
       y2="108.06671" />
    <radialGradient
       inkscape:collect="always"
       xlink:href="#linearGradient2508"
       id="radialGradient2383"
       gradientUnits="userSpaceOnUse"
       gradientTransform="matrix(0.423496,0.270224,-0.47005,0.736665,120.2998,-38.76998)"
       cx="25.536703"
       cy="69.959908"
       fx="49.902897"
       fy="71.367729"
       r="42.70364" />
    <radialGradient
       inkscape:collect="always"
       xlink:href="#linearGradient3225"
       id="radialGradient2386"
       gradientUnits="userSpaceOnUse"
       gradientTransform="matrix(0.530819,0.478722,-0.746013,0.770079,149.9848,-47.79208)"
       cx="51.235405"
       cy="111.06235"
       fx="48.59016"
       fy="95.077065"
       r="32.612133" />
    <radialGradient
       inkscape:collect="always"
       xlink:href="#linearGradient2490"
       id="radialGradient2389"
       gradientUnits="userSpaceOnUse"
       gradientTransform="matrix(0.357276,0.332619,-0.350678,0.350678,78.24083,-13.80943)"
       spreadMethod="reflect"
       cx="92.708214"
       cy="109.25349"
       fx="72.956184"
       fy="113.51844"
       r="31.951889" />
    <radialGradient
       inkscape:collect="always"
       xlink:href="#linearGradient2508"
       id="radialGradient2392"
       gradientUnits="userSpaceOnUse"
       gradientTransform="matrix(0.551308,0.513261,-0.428693,0.428693,74.30837,-29.69082)"
       cx="53.873707"
       cy="79.98558"
       fx="54.185909"
       fy="99.755486"
       r="31.951889" />
    <radialGradient
       inkscape:collect="always"
       xlink:href="#linearGradient3225"
       id="radialGradient4174"
       cx="20.015894"
       cy="13.474993"
       fx="20.015894"
       fy="13.474993"
       r="19.208509"
       gradientTransform="matrix(1.04741,-1.35402e-2,8.246096e-3,0.637882,-1.05365,5.612285)"
       gradientUnits="userSpaceOnUse" />
    <radialGradient
       inkscape:collect="always"
       xlink:href="#linearGradient2368"
       id="radialGradient7727"
       cx="14.910576"
       cy="18.779354"
       fx="14.910576"
       fy="18.779354"
       r="15.878167"
       gradientTransform="matrix(1,0,0,0.263692,0,13.82741)"
       gradientUnits="userSpaceOnUse" />
    <linearGradient
       inkscape:collect="always"
       xlink:href="#linearGradient9501"
       id="linearGradient9507"
       x1="-0.91660535"
       y1="5.6293931"
       x2="25.356119"
       y2="6.2796063"
       gradientUnits="userSpaceOnUse" />
  </defs>
  <path
     id="path2593"
     style="opacity:0.38139535;fill:url(#radialGradient1915);fill-opacity:1;fill-rule:nonzero;stroke:none;stroke-width:0;stroke-linecap:round;stroke-linejoin:round;stroke-miterlimit:4;stroke-dasharray:none;stroke-dashoffset:4;stroke-opacity:1"
     d="M 38.142013,27.499977 C 38.142013,31.089827 30.209337,33.999978 20.423886,33.999978 C 10.638435,33.999978 2.70576,31.089827 2.70576,27.499977 C 2.70576,23.910127 10.638435,20.999977 20.423886,20.999977 C 30.209337,20.999977 38.142013,23.910127 38.142013,27.499977 L 38.142013,27.499977 z " />
  <path
     id="path2276"
     style="fill:white;fill-opacity:0.75688076;fill-rule:nonzero;stroke:none;stroke-width:0.5;stroke-linecap:round;stroke-linejoin:round;stroke-miterlimit:4;stroke-dasharray:none;stroke-dashoffset:4;stroke-opacity:1"
     d="M 10.956528,1.0198748 L 10.956528,-1.7748336 L 10.956528,1.0198748 z " />
  <rect
     id="rect1951"
     style="opacity:0.61162792;fill:#555753;fill-opacity:1;fill-rule:nonzero;stroke:none;stroke-width:0.69999999;stroke-linecap:round;stroke-linejoin:miter;stroke-miterlimit:4;stroke-dasharray:none;stroke-opacity:1"
     y="30"
     x="-0.0019644466"
     height="10.004759"
     width="40.001965" />
  <text
     xml:space="preserve"
     id="text2840"
     style="font-size:12px;font-style:normal;font-weight:normal;fill:#eeeeec;fill-opacity:1;stroke:none;stroke-width:1px;stroke-linecap:butt;stroke-linejoin:miter;stroke-opacity:1;font-family:Bitstream Vera Sans"
     y="39.168156"
     x="12.609105"><tspan
       id="tspan2842"
       y="39.168156"
       x="12.609105">Au</tspan></text>
  <path
     id="path3200"
     style="fill:url(#radialGradient4174);fill-opacity:1.0;fill-rule:nonzero;stroke:none;stroke-width:1;stroke-linecap:round;stroke-linejoin:round;stroke-miterlimit:4;stroke-dasharray:none;stroke-opacity:1"
     d="M 20.042861,1.6829385 C 10.641833,1.6829385 3.1409716,5.4529673 1.5944706,10.147008 C 0.8939546,12.27326 0.81380402,13.042652 0.81380402,14.379043 C 0.81380402,15.858391 0.83315792,17.076291 1.5122951,18.914688 C 3.3125933,23.788026 10.503974,28.011067 20.042861,28.01107 C 29.581743,28.011068 37.11622,23.708392 38.532333,18.914688 C 39.086225,17.039702 39.230825,15.739597 39.230825,14.379043 C 39.230825,13.2986 39.187168,12.787644 38.450157,10.147008 C 37.118422,5.3755357 29.443887,1.6829385 20.042861,1.6829385 z M 20.042861,7.4852776 C 27.6246,7.4852776 34.048955,10.789037 36.190333,14.420131 C 36.184015,14.430991 36.196727,14.450376 36.190333,14.461219 C 34.048955,18.092312 27.6246,20.706552 20.042861,20.706552 C 12.46112,20.706551 6.0367616,18.092312 3.8953828,14.461219 C 3.8889888,14.450376 3.9017004,14.430991 3.8953828,14.420131 C 6.0367616,10.789037 12.46112,7.4852776 20.042861,7.4852776 z " />
  <path
     id="path3202"
     style="opacity:0.52427183;fill:url(#linearGradient1904);fill-opacity:1;fill-rule:nonzero;stroke:none;stroke-width:1;stroke-linecap:round;stroke-linejoin:round;stroke-miterlimit:4;stroke-dasharray:none;stroke-opacity:1"
     d="M 20.042861,2.7825282 C 10.711487,2.7825282 3.1147148,6.7736723 3.1147162,11.698563 C 3.1147162,12.610032 3.4134403,13.499727 3.8953828,14.328177 C 6.0367602,10.697083 12.46112,7.3933236 20.042861,7.3933236 C 27.6246,7.3933236 34.048955,10.697083 36.190333,14.328177 C 36.672276,13.499727 36.929912,12.610032 36.929912,11.698563 C 36.929912,6.7736723 29.374233,2.7825282 20.042861,2.7825282 z " />
  <path
     style="fill:url(#radialGradient1898);fill-opacity:1.0;fill-rule:nonzero;stroke:none;stroke-width:1;stroke-linecap:round;stroke-linejoin:round;stroke-miterlimit:4;stroke-dasharray:none;stroke-opacity:1;opacity:0.41763341"
     d="M 3.875 7 C 2.8919191 7.9716348 2.1794077 9.0425879 1.8125 10.15625 C 1.111984 12.282502 1.03125 13.038609 1.03125 14.375 C 1.03125 15.854348 1.039613 17.067852 1.71875 18.90625 C 3.519048 23.779588 10.711113 28.031247 20.25 28.03125 C 29.788883 28.03125 37.333887 23.699955 38.75 18.90625 C 39.303891 17.031265 39.4375 15.735554 39.4375 14.375 C 39.437501 13.294557 39.424511 12.796886 38.6875 10.15625 C 38.415224 9.1807133 37.856839 8.238004 37.09375 7.375 C 39.536729 11.710255 39.689387 16.464936 36.9375 20.125 C 32.406684 26.151075 21.751815 26.908574 13.1875 21.78125 C 11.525386 20.786168 10.088939 19.614922 8.84375 18.375 C 6.667706 17.327428 5.0235983 15.992485 4.125 14.46875 C 4.118606 14.457907 4.131317 14.41711 4.125 14.40625 C 3.643057 13.5778 3.34375 12.692719 3.34375 11.78125 C 3.3437498 10.933735 3.5799287 10.120379 4 9.34375 C 3.8893306 8.5562905 3.8240496 7.7698114 3.875 7 z "
     id="path3206" />
  <path
     sodipodi:nodetypes="ccc"
     id="path2311"
     d="M 65.214884,-2.9905499 L 65.214884,-4.0227699 L 65.214884,-2.9905499 z "
     style="fill:white;fill-opacity:0.75688076;fill-rule:nonzero;stroke:none;stroke-width:0.5;stroke-linecap:round;stroke-linejoin:round;stroke-miterlimit:4;stroke-dasharray:none;stroke-dashoffset:4;stroke-opacity:1" />
  <path
     sodipodi:nodetypes="ccc"
     id="path2079"
     d="M -3.2257179,-24.417727 L -3.2257179,-25.449948 L -3.2257179,-24.417727 z "
     style="fill:white;fill-opacity:0.75688076;fill-rule:nonzero;stroke:none;stroke-width:0.5;stroke-linecap:round;stroke-linejoin:round;stroke-miterlimit:4;stroke-dasharray:none;stroke-dashoffset:4;stroke-opacity:1" />
  <path
     style="fill:url(#radialGradient7727);fill-opacity:1.0;fill-rule:nonzero;stroke:none;stroke-width:1;stroke-linecap:round;stroke-linejoin:round;stroke-miterlimit:4;stroke-dasharray:none;stroke-opacity:1"
     d="M 36.185511,14.592432 C 34.009186,18.192415 27.600592,20.779932 20.060511,20.779932 C 13.086425,20.779928 7.1120596,18.554382 4.5292615,15.373682 C 1.9158712,16.852293 9.9971485,23.243796 18.109872,22.955748 C 23.838829,22.752337 33.005073,20.618543 36.185511,14.592432 z "
     id="path6831"
     sodipodi:nodetypes="cscsc" />
  <path
     d="M 20.042861,2.7825282 C 14.36326,2.609701 11.851572,4.1005655 12.15309,8.6713227 C 13.189105,8.421337 15.322058,7.4583449 20.042861,7.3933236 C 27.623881,7.2889075 34.048955,10.697083 36.190333,14.328177 C 36.672276,13.499727 36.929912,12.610032 36.929912,11.698563 C 36.929912,6.7736723 29.374233,2.7825282 20.042861,2.7825282 z "
     style="opacity:0.52427183;fill:url(#linearGradient9507);fill-opacity:1.0;fill-rule:nonzero;stroke:none;stroke-width:1;stroke-linecap:round;stroke-linejoin:round;stroke-miterlimit:4;stroke-dasharray:none;stroke-opacity:1"
     id="path8614"
     sodipodi:nodetypes="ccscsc" />
</svg>
