{
    "authors":[
        [
            "Joshua Keel",
            "Coding",
            "joshuakeel@gmail.com",
            null
        ],
        [
            "Danny Allen",
            "Design, Graphics and many Vocabularies",
            "danny@dannyallen.co.uk",
            null
        ],
        [
            "Jeremy Whiting",
            "Maintainer",
            "jpwhiting@kde.org",
            null
        ]
    ],
    "category":"Education",
    "credits":[
        [
            "Artemiy Pavlov",
            "Sound effects",
            "",
            "http://artemiolabs.com"
        ],
        [
            "Pino Toscano",
            "Italian Data Files",
            "pino@kde.org",
            null
        ],
        [
            "Kris Thomsen",
            "Danish Data Files",
            "kris@scoutzone.dk",
            null
        ],
        [
            "Patrick Spendrin",
            "German Data Files",
            "patrick_spendrin@gmx.de",
            null
        ],
        [
            "Eric Kr\u00fcse",
            "British English Data Files",
            "bildvontux@yahoo.de",
            null
        ],
        [
            "Hanna Scott",
            "Swedish Data Files",
            "hanna.et.scott@gmail.com",
            null
        ],
        [
            "Jure Repinc",
            "Slovenian Data Files",
            "jlp@holodeck1.com",
            null
        ],
        [
            "Yuri Chornoivan",
            "Ukranian Data Files",
            "",
            null
        ]
    ],
    "generic name":"Letter Order Game",
    "license":"GPL"
}