{
    "authors":[
        [
            "Klaus-Dieter M\u00f6ller",
            "Original Author",
            "kdmoeller@foni.net",
            null
        ],
        [
            "Matthias Me\u00dfmer",
            "GUI",
            "bmlmessmer@web.de",
            null
        ],
        [
            "Fredrik Edemar",
            "Various improvements",
            "f_edemar@linux.se",
            null
        ],
        [
            "David Saxton",
            "Porting to Qt 4, UI improvements, features",
            "david@bluehaze.org",
            null
        ]
    ],
    "category":"Education",
    "credits":[
        [
            "David Vignoni",
            "svg icon",
            "david80v@tin.it",
            null
        ],
        [
            "Albert Astals Cid",
            "command line options, MIME type",
            "aacid@kde.org",
            null
        ]
    ],
    "generic name":"Mathematical Function Plotter",
    "license":"GPL"
}
