{
    "authors":[
        [
            "Jason Harris",
            "",
            "jharris@30doradus.org",
            "http://www.30doradus.org"
        ],
        [
            "Jasem Mutlaq",
            "",
            "mutlaqja@ikarustech.com",
            null
        ],
        [
            "James Bowlin",
            "",
            "bowlin@mindspring.com",
            null
        ],
        [
            "Pablo de Vicente",
            "",
            "pvicentea@wanadoo.es",
            null
        ],
        [
            "Thomas Kabelmann",
            "",
            "tk78@gmx.de",
            null
        ],
        [
            "Heiko Evermann",
            "",
            "heiko@evermann.de",
            "http://www.evermann.de"
        ],
        [
            "Carsten Niehaus",
            "",
            "cniehaus@gmx.de",
            null
        ],
        [
            "Mark Hollomon",
            "",
            "mhh@mindspring.com",
            null
        ],
        [
            "Alexey Khudyakov",
            "",
            "alexey.skladnoy@gmail.com",
            null
        ],
        [
            "M&eacute;d&eacute;ric Boquien",
            "",
            "mboquien@free.fr",
            null
        ],
        [
            "Akarsh Simha",
            "",
            "akarsh.simha@kdemail.net",
            null
        ],
        [
            "J&eacute;r&ocirc;me Sonrier",
            "",
            "jsid@emor3j.fr.eu.org",
            null
        ],
        [
            "Prakash Mohan",
            "",
            "prakash.mohan@kdemail.net",
            null
        ]
    ],
    "category":"Education",
    "credits":[],
    "generic name":"Desktop Planetarium",
    "license":"GPL"
}