{
    "name": "KTouch",
    "parent": "kde/kdeedu",
    "repository": ["git", "ktouch"],
    "icon": ["own", "icons/hi{size}-app-ktouch.png"],

    "description":
        "<p><strong>KTouch</strong> is a program to learn and practice touch typing. Every finger has its place on the keyboard with associated keys to press. Starting with only a few keys to remember you will advance through different training levels where additional keys are introduced. Because you no longer need to search for the keys on the keyboard you will be able to type quickly and accurately.</p>",
    "age": "School",
    "subject": "Miscellaneous",

    "features":
    [
        "Ships with dozens of courses spanning many different languages and keyboard layouts",
        "Powerful course and keyboard layout editor for user-created training material",
        "Comprehensive training statistics to track and analyze your learning progress"
    ],
    "homepage": false,
    "kde-apps.org": false,

    "userbase": "Applications/Education/KTouch",
    "forum": 21,
    "handbook": "http://docs.kde.org/development/en/kdeedu/ktouch/index.html",

    "irc": "#kde-edu",
    "mailing lists": "kde-edu@kde.org",

    "cia.vc": "kde/ktouch",
    "bugs": "ktouch"
}
