{
    "authors":[
        [
            "Andreas Nicolai",
            "Current maintainer and programmer",
            "Andreas.Nicolai@gmx.net",
            null
        ],
        [
            "H\u00e5vard Fr\u00f8iland",
            "Original author, project admin",
            "haavard@users.sourceforge.net",
            null
        ]
    ],
    "category":"Education",
    "credits":[
        [
            "David Vignoni",
            "Creator of the SVG icon",
            "david80v@tin.it",
            null
        ],
        [
            "Anne-Marie Mahfouf",
            "Lots of patches, fixes, updates",
            "annma@kde.org",
            null
        ],
        [
            "All the creators of training and keyboard files",
            null,
            null,
            null
        ]
    ],
    "generic name":"Touch Typing Tutor",
    "license":"GPL"
}