{
    "name": "KWordQuiz",
    "parent": "kde/kdeedu",
    "repository": ["git", "kwordquiz"],
    "icon": ["own", "src/icons/hi{size}-apps-kwordquiz.png"],
    "dependencies": "libkdeedu",    

    "description":
        "<p><strong>KWordQuiz</strong> is a tool that gives you a powerful way to master new vocabularies. It may be a language or any other kind of terminology.</p>",
    "age": "School",
    "subject": "Language",

    "features":
    [
        "Easy to use",
        "Five different practice modes",
        "Flashcards and Quiz types",
        "Several Vocabulary documents formats supported"
    ],
    "homepage": "/kwordquiz/",
    "kde-apps.org": 10172,

    "userbase": false,
    "forum": 21,
    "handbook": "http://docs.kde.org/development/en/kdeedu/kwordquiz/index.html",

    "irc": "#kde-edu",
    "mailing lists": "kde-edu@kde.org",

    "cia.vc": "kde/kwordquiz",
    "bugs": "kwordquiz"
}
