{
    "name": "Minuet",
    "parent": "kde/kdeedu",
    "repository": ["git", "minuet"],
    "icon": ["own", "icons/{size}-apps-minuet.png"],

    "description":
        "<p><strong>Minuet</strong> is a free and open source software for music education. It aims at supporting students and teachers in many aspects of music education, such as ear training, first-sight reading, solfa, scales, rhythm, harmony, and improvisation. Minuet makes extensive use of MIDI capabilities to provide a full-fledged set of features regarding volume, tempo, and pitch changes, which makes Minuet a valuable tool for both novice and experienced musicians.</p>",
    "age": "School",
    "subject": "Miscellaneous",

    "features":
    [
        "Nearly 40 exercises regarding intervals, chords, rhythm, and scales.",
        "Check your musical perception skills on piano keyboard.",
        "Adjustable playing settings, from beginners to pro.",
        "Create your own exercises and adapt Minuet to your needs."
    ],
    "homepage": "https://minuet.kde.org",
    "kde-apps.org": "",

    "userbase": false,
    "forum": 21,
    "handbook": "https://docs.kde.org/stable5/en/kdeedu/minuet/index.html",

    "irc": "#kde-edu",
    "mailing lists": ["kde-edu@kde.org"],

    "cia.vc": false,
    "bugs": "https://bugs.kde.org/enter_bug.cgi?format=guided&product=Minuet"
}
