{
    "name": "Parley",
    "parent": "kde/kdeedu",
    "repository": ["git", "parley"],
    "icon": ["own", "src/hi{size}-app-parley.png"],
    "dependencies": "libkdeedu",    

    "description":
        "<p><b>Parley</b> is a program to help you memorize things.<br> Parley supports many language specific features but can be used for other learning tasks just as well. It uses the <a href=\"http://en.wikipedia.org/wiki/Spaced_repetition\">spaced repetition</a> learning method, also known as flash cards.</p><p>  Creating new vocabulary collections with Parley is easy,  but of course it is even better if you can use some of our premade files. Have a look at the <a href=\"http://kde-files.org/index.php?xcontentmode=687\">KDE-Files.org</a> page or use the \"Download New Collections\" feature directly in Parley.</p>",
    "age": "School",
    "subject": "Language",

    "features":
    [
        "Different test types",
        [
            "Mixed Letters (order the letters, anagram like) to get to know new words",
            "Multiple choice",
            "Written tests - type the words (including clever correction mechanisms)",
            "Example sentences can be used to create 'fill in the gap' tests",
            "Article training",
            "Comparison forms (adjectives and/or adverbs)",
            "Conjugations",
            "Synonym/Antonym/Paraphrase"
        ],
        "Fast test setup with all options in one dialog",
        "More than two languages (for example English, Chinese Traditional and Chinese Simplified)",
        "Find words (also by word type) quickly",
        "Easy lesson management",
        "Premade vocabulary files ready to use",
        "Share and download vocabulary using Get Hot New Stuff",
        "Open XML file format (shared with KWordQuiz, Kanagram and KHangMan) that can be edited by hand and is easily usable with scripts"
    ],
    "homepage": false,
    "kde-apps.org": 66741,

    "userbase": "Parley",
    "forum": 21,
    "handbook": "http://docs.kde.org/stable/en/kdeedu/parley/index.html",

    "irc": "#kde-edu",
    "mailing lists": ["kde-edu@kde.org", "parley-devel@kde.org"],

    "cia.vc": "kde/parley",
    "bugs": "parley"
}
