{
    "authors":[
        [
            "Tomaz Canabrava",
            "Developer",
            "tcanabrava@kde.org",
            "http://liveblue.wordpress.com"
        ],
        [
            "Wagner Reck",
            "Developer",
            "wagner.reck@gmail.com",
            "http://wiglot.wordpress.com"
        ],
        [
            "Andreas Cord-Landwehr",
            "Developer",
            "cordlandwehr@gmail.com",
            "http://cordlandwehr.wordpress.com"
        ]
    ],
    "category":"Education",
    "credits":[],
    "generic name":"Rocs Graph Theory",
    "license":"GPL"
}