{
    "All":[
        [
            "artikulate",
            "Artikulate",
            "Pronunciation Trainer"
        ],
        [
            "blinken",
            "Blinken",
            "Memory Enhancement Game"
        ],
        [
            "cantor",
            "Cantor",
            "KDE Frontend to Mathematical Software"
        ],
        [
            "gcompris",
            "GCompris",
            "Educational suite"
        ],
        [
            "kalgebra",
            "KAlgebra",
            "Graph Calculator"
        ],
        [
            "kalzium",
            "Kalzium",
            "Periodic Table of Elements"
        ],
        [
            "kanagram",
            "Kanagram",
            "Letter Order Game"
        ],
        [
            "kbruch",
            "KBruch",
            "Exercise Fractions"
        ],
        [
            "kgeography",
            "KGeography",
            "Geography Trainer"
        ],
        [
            "khangman",
            "KHangMan",
            "Hangman Game"
        ],
        [
            "kig",
            "Kig",
            "Interactive Geometry"
        ],
        [
            "kiten",
            "Kiten",
            "Japanese Reference/Study Tool"
        ],
        [
            "klettres",
            "KLettres",
            "Learn The Alphabet"
        ],
        [
            "kmplot",
            "KmPlot",
            "Mathematical Function Plotter"
        ],
        [
            "kstars",
            "KStars",
            "Desktop Planetarium"
        ],
        [
            "ktouch",
            "KTouch",
            "Touch Typing Tutor"
        ],
        [
            "kturtle",
            "KTurtle",
            "Educational Programming Environment"
        ],
        [
            "kwordquiz",
            "KWordQuiz",
            "Flash Card Trainer"
        ],
        [
            "labplot",
            "LabPlot",
            "Scientific Data Plotter"
        ],
        [
            "marble",
            "Marble",
            "Desktop Globe"
        ],
        [
            "minuet",
            "Minuet",
            "Music Education Software"
        ],
        [
            "pairs",
            "Pairs",
            "A memory and pairs game for KDE"
        ],
        [
            "parley",
            "Parley",
            "Vocabulary Trainer"
        ],
        [
            "rocs",
            "Rocs",
            "Rocs Graph Theory"
        ],
        [
            "step",
            "Step",
            "Interactive Physical Simulator"
        ]
    ]
}